^C:\USERS\JISUC\SOURCE\REPOS\SAD\SAD\SAD.CPP
C:\USERS\JISUC\SOURCE\REPOS\SAD\SAD\X64\DEBUG\VC142.PDB
C:\USERS\JISUC\SOURCE\REPOS\SAD\SAD\X64\DEBUG\VC142.IDB
C:\USERS\JISUC\SOURCE\REPOS\SAD\SAD\X64\DEBUG\SAD.OBJ
